<svg width="20" height="19" viewBox="0 0 20 19" fill="none" xmlns="http://www.w3.org/2000/svg">
<g clip-path="url(#clip0)">
<path fill-rule="evenodd" clip-rule="evenodd" d="M10.6323 5.1041C12.0302 6.50202 12.0302 8.7685 10.6323 10.1664C9.23432 11.5643 6.96785 11.5643 5.56993 10.1664C4.17201 8.7685 4.17201 6.50202 5.56993 5.1041C6.96785 3.70618 9.23432 3.70618 10.6323 5.1041ZM14.5647 11.5973C16.358 8.67722 15.99 4.80501 13.4607 2.27568C10.5007 -0.684341 5.70152 -0.684341 2.7415 2.27568C-0.21852 5.23569 -0.21852 10.0348 2.7415 12.9948C5.30943 15.5628 9.26154 15.9029 12.1962 14.0153L16.6853 18.5044C17.3462 19.1653 18.4177 19.1653 19.0786 18.5044C19.7395 17.8435 19.7395 16.772 19.0786 16.1112L14.5647 11.5973Z" fill="white"/>
</g>
<defs>
<clipPath id="clip0">
<rect width="20" height="19" fill="white"/>
</clipPath>
</defs>
</svg>
