<svg width="14" height="25" viewBox="0 0 14 25" fill="none" xmlns="http://www.w3.org/2000/svg">
<path d="M12.9167 13.5417L13.6458 9.375H8.33333V6.45833C8.33333 5.10417 8.75 4.16667 10.625 4.16667H13.5417V0.208333C13.125 0.208333 12.2917 0 10.625 0C7.08333 0 4.16667 2.29167 4.16667 6.25V9.375H0V13.5417H4.16667V25H8.33333V13.5417H12.9167Z" fill="white"/>
</svg>
